\relax 
\providecommand\hyper@newdestlabel[2]{}
\@writefile{toc}{\contentsline {chapter}{\numberline {5.}SUMMARY AND DISCUSSION}{11}{chapter.39}}
\@writefile{lof}{\addvspace {10\p@ }}
\@writefile{lot}{\addvspace {10\p@ }}
\@writefile{toc}{\contentsline {section}{\numberline {5.1}Introduction}{11}{section.40}}
\@writefile{toc}{\contentsline {subsection}{\numberline {5.1.1}Hypothesis}{11}{subsection.42}}
\newlabel{RF1}{{5.1.1}{12}{Hypothesis}{table.43}{}}
\@writefile{lot}{\contentsline {table}{\numberline {Table\nobreakspace  5.1}{\ignorespaces This table shows almost nothing but is a sideways table and takes up a whole page by itself}}{12}{table.43}}
\newlabel{nothingelse}{{5.1}{12}{Hypothesis}{table.43}{}}
\@writefile{toc}{\contentsline {subsubsection}{\numberline {5.1.1.1}Parts of the hypothesis}{13}{subsubsection.44}}
\@writefile{toc}{\contentsline {subsection}{\numberline {5.1.2}Second Hypothesis}{13}{subsection.45}}
\@writefile{toc}{\contentsline {subsubsection}{\numberline {5.1.2.1}Parts of the second hypothesis}{13}{subsubsection.46}}
\@writefile{toc}{\contentsline {section}{\numberline {5.2}Criteria Review}{13}{section.47}}
\@writefile{lof}{\contentsline {figure}{\numberline {Figure\nobreakspace  5.1}{\ignorespaces Durham Centre--- Another View}}{14}{figure.41}}
\newlabel{mgraph2}{{5.1}{14}{Introduction}{figure.41}{}}
\@setckpt{Body/chapter5}{
\setcounter{page}{15}
\setcounter{equation}{0}
\setcounter{enumi}{0}
\setcounter{enumii}{0}
\setcounter{enumiii}{0}
\setcounter{enumiv}{0}
\setcounter{footnote}{0}
\setcounter{mpfootnote}{0}
\setcounter{part}{0}
\setcounter{chapter}{5}
\setcounter{section}{2}
\setcounter{subsection}{0}
\setcounter{subsubsection}{0}
\setcounter{paragraph}{0}
\setcounter{subparagraph}{0}
\setcounter{figure}{1}
\setcounter{table}{1}
\setcounter{lofdepth}{1}
\setcounter{lotdepth}{1}
\setcounter{NAT@ctr}{0}
\setcounter{Item}{0}
\setcounter{Hfootnote}{0}
\setcounter{bookmark@seq@number}{30}
\setcounter{section@level}{1}
}
