\relax 
\providecommand\hyper@newdestlabel[2]{}
\@writefile{toc}{\contentsline {chapter}{\numberline {4.}RESULTS}{8}{chapter.30}}
\@writefile{lof}{\addvspace {10\p@ }}
\@writefile{lot}{\addvspace {10\p@ }}
\@writefile{toc}{\contentsline {section}{\numberline {4.1}Introduction}{8}{section.31}}
\@writefile{lot}{\contentsline {table}{\numberline {Table\nobreakspace  4.1}{\ignorespaces Moon Data}}{8}{table.32}}
\newlabel{data}{{4.1}{8}{Introduction}{table.32}{}}
\@writefile{toc}{\contentsline {subsection}{\numberline {4.1.1}Hypothesis}{8}{subsection.33}}
\@writefile{lof}{\contentsline {figure}{\numberline {Figure\nobreakspace  4.1}{\ignorespaces Durham Centre}}{9}{figure.34}}
\newlabel{mgraph}{{4.1}{9}{Hypothesis}{figure.34}{}}
\@writefile{toc}{\contentsline {subsubsection}{\numberline {4.1.1.1}Parts of the hypothesis}{9}{subsubsection.35}}
\@writefile{toc}{\contentsline {subsection}{\numberline {4.1.2}Second Hypothesis}{9}{subsection.36}}
\@writefile{toc}{\contentsline {subsubsection}{\numberline {4.1.2.1}Parts of the second hypothesis}{10}{subsubsection.37}}
\@writefile{toc}{\contentsline {section}{\numberline {4.2}Criteria Review}{10}{section.38}}
\@setckpt{Body/chapter4}{
\setcounter{page}{11}
\setcounter{equation}{0}
\setcounter{enumi}{0}
\setcounter{enumii}{0}
\setcounter{enumiii}{0}
\setcounter{enumiv}{0}
\setcounter{footnote}{0}
\setcounter{mpfootnote}{0}
\setcounter{part}{0}
\setcounter{chapter}{4}
\setcounter{section}{2}
\setcounter{subsection}{0}
\setcounter{subsubsection}{0}
\setcounter{paragraph}{0}
\setcounter{subparagraph}{0}
\setcounter{figure}{1}
\setcounter{table}{1}
\setcounter{lofdepth}{1}
\setcounter{lotdepth}{1}
\setcounter{NAT@ctr}{0}
\setcounter{Item}{0}
\setcounter{Hfootnote}{0}
\setcounter{bookmark@seq@number}{25}
\setcounter{section@level}{1}
}
