\relax 
\providecommand\hyper@newdestlabel[2]{}
\@writefile{toc}{\def \@chapapp {}}
\@writefile{toc}{\contentsline {chapter}{ACKNOWLEDGEMENTS}{vii}{section*.4}}
\@writefile{toc}{\def \@chapapp {CHAPTER\ }}
\@setckpt{Preface/acknowl}{
\setcounter{page}{8}
\setcounter{equation}{0}
\setcounter{enumi}{0}
\setcounter{enumii}{0}
\setcounter{enumiii}{0}
\setcounter{enumiv}{0}
\setcounter{footnote}{0}
\setcounter{mpfootnote}{0}
\setcounter{part}{0}
\setcounter{chapter}{0}
\setcounter{section}{0}
\setcounter{subsection}{0}
\setcounter{subsubsection}{0}
\setcounter{paragraph}{0}
\setcounter{subparagraph}{0}
\setcounter{figure}{0}
\setcounter{table}{0}
\setcounter{lofdepth}{1}
\setcounter{lotdepth}{1}
\setcounter{NAT@ctr}{0}
\setcounter{Item}{0}
\setcounter{Hfootnote}{0}
\setcounter{bookmark@seq@number}{4}
\setcounter{section@level}{0}
}
